digraph G {
graph [ ]
node [ ]
edge [ ]
0[ color="black" label="idle" ];
1[ color="black" label="empty hand motion" ];
2[ color="black" label="reaching" ];
3[ color="black" label="grasping" ];
4[ color="black" label="holding" ];
5[ color="black" label="retreating" ];
6[ color="black" label="lifting" ];
7[ color="black" label="carrying" ];
8[ color="black" label="waiting" ];
9[ color="black" label="placing successful" ];
0->1 [ color="black" label="1, 5, 7" ];
1->2 [ color="black" label="2, 8" ];
2->1 [ color="black" label="3, 9" ];
1->0 [ color="black" label="4, 6, 10" ];
0->3 [ color="black" label="11" ];
3->0 [ color="black" label="12" ];
0->4 [ color="black" label="13, 15" ];
4->0 [ color="black" label="14, 16" ];
0->5 [ color="black" label="17" ];
5->6 [ color="black" label="18" ];
6->7 [ color="black" label="19" ];
7->4 [ color="black" label="20, 22" ];
4->7 [ color="black" label="21" ];
4->8 [ color="black" label="23" ];
8->9 [ color="black" label="24" ];
}
