digraph G {
graph [ ]
node [ ]
edge [ ]
0[ color="black" label="idle" ];
1[ color="black" label="empty hand motion" ];
2[ color="black" label="reaching" ];
3[ color="black" label="grasping" ];
4[ color="black" label="retreating" ];
5[ color="black" label="waiting" ];
0->1 [ color="black" label="1, 3, 5, 13" ];
1->0 [ color="black" label="2, 4, 8, 14, 17" ];
1->2 [ color="black" label="6" ];
2->1 [ color="black" label="7" ];
0->3 [ color="black" label="9, 11" ];
3->0 [ color="black" label="10, 12" ];
0->4 [ color="black" label="15" ];
4->1 [ color="black" label="16" ];
0->5 [ color="black" label="18" ];
}
