digraph G {
graph [ ]
node [ ]
edge [ ]
0[ color="black" label="idle" ];
1[ color="black" label="empty hand motion" ];
2[ color="black" label="preshaping" ];
3[ color="black" label="reaching" ];
4[ color="black" label="grasping" ];
5[ color="black" label="carrying" ];
0->1 [ color="black" label="1, 5" ];
1->0 [ color="black" label="2" ];
0->2 [ color="black" label="3" ];
2->0 [ color="black" label="4" ];
1->3 [ color="black" label="6" ];
3->4 [ color="black" label="7, 9, 11" ];
4->3 [ color="black" label="8, 10" ];
4->5 [ color="black" label="12" ];
}
