digraph G {
graph [ ]
node [ ]
edge [ ]
0[ color="black" label="idle" ];
1[ color="black" label="empty hand motion" ];
2[ color="black" label="preshaping" ];
3[ color="black" label="grasping" ];
4[ color="black" label="holding" ];
5[ color="black" label="carrying" ];
6[ color="black" label="placing" ];
7[ color="black" label="placing successful" ];
0->1 [ color="black" label="1, 3" ];
1->0 [ color="black" label="2, 4" ];
0->2 [ color="black" label="5" ];
2->0 [ color="black" label="6" ];
0->3 [ color="black" label="7" ];
3->4 [ color="black" label="8" ];
4->5 [ color="black" label="9, 11" ];
5->4 [ color="black" label="10, 12" ];
4->6 [ color="black" label="13, 15, 17, 19, 21, 23, 25, 27, 29, 31, 33" ];
6->4 [ color="black" label="14, 16, 18, 20, 22, 24, 26, 28, 30, 32" ];
6->7 [ color="black" label="34" ];
}
