digraph G {
graph [ ]
node [ ]
edge [ ]
0[ color="black" label="idle" ];
1[ color="black" label="empty hand motion" ];
2[ color="black" label="preshaping" ];
3[ color="black" label="reaching" ];
4[ color="black" label="grasping" ];
5[ color="black" label="carrying" ];
6[ color="black" label="lifting" ];
7[ color="black" label="holding" ];
8[ color="black" label="platform moves" ];
9[ color="black" label="placing" ];
10[ color="black" label="placing successful" ];
0->1 [ color="black" label="1, 5, 11" ];
1->0 [ color="black" label="2, 12, 20" ];
0->2 [ color="black" label="3" ];
2->0 [ color="black" label="4" ];
1->3 [ color="black" label="6" ];
3->4 [ color="black" label="7, 9, 15" ];
4->3 [ color="black" label="8, 14" ];
4->0 [ color="black" label="10" ];
0->4 [ color="black" label="13" ];
4->5 [ color="black" label="16" ];
5->6 [ color="black" label="17" ];
6->5 [ color="black" label="18" ];
5->1 [ color="black" label="19" ];
0->7 [ color="black" label="21, 29" ];
7->0 [ color="black" label="22, 30" ];
0->8 [ color="black" label="23, 31" ];
8->5 [ color="black" label="24, 26" ];
5->8 [ color="black" label="25, 27" ];
8->0 [ color="black" label="28, 32" ];
0->9 [ color="black" label="33" ];
9->7 [ color="black" label="34, 36, 38, 40, 42, 44, 46" ];
7->9 [ color="black" label="35, 37, 39, 41, 43, 45, 47" ];
9->10 [ color="black" label="48" ];
}
