digraph G {
graph [ ]
node [ ]
edge [ ]
0[ color="black" label="idle" ];
1[ color="black" label="empty hand motion" ];
2[ color="black" label="preshaping" ];
3[ color="black" label="reaching" ];
4[ color="black" label="grasping" ];
5[ color="black" label="platform moves" ];
0->1 [ color="black" label="1, 5" ];
1->0 [ color="black" label="2, 20" ];
0->2 [ color="black" label="3" ];
2->0 [ color="black" label="4" ];
1->3 [ color="black" label="6" ];
3->4 [ color="black" label="7, 9, 11, 13" ];
4->3 [ color="black" label="8, 10, 12, 14" ];
3->1 [ color="black" label="15" ];
1->2 [ color="black" label="16, 18" ];
2->1 [ color="black" label="17, 19" ];
0->5 [ color="black" label="21" ];
5->0 [ color="black" label="22" ];
}
