digraph G {
graph [ ]
node [ ]
edge [ ]
0[ color="black" label="idle" ];
1[ color="black" label="empty hand motion" ];
2[ color="black" label="preshaping" ];
3[ color="black" label="reaching" ];
4[ color="black" label="grasping" ];
5[ color="black" label="holding" ];
6[ color="black" label="carrying" ];
7[ color="black" label="lifting" ];
8[ color="black" label="placing" ];
9[ color="black" label="placing successful" ];
0->1 [ color="black" label="1, 5" ];
1->0 [ color="black" label="2" ];
0->2 [ color="black" label="3" ];
2->0 [ color="black" label="4" ];
1->3 [ color="black" label="6" ];
3->4 [ color="black" label="7" ];
4->5 [ color="black" label="8, 10, 12, 14" ];
5->4 [ color="black" label="9, 11, 13" ];
5->6 [ color="black" label="15, 19" ];
6->7 [ color="black" label="16" ];
7->6 [ color="black" label="17" ];
6->5 [ color="black" label="18, 20" ];
5->8 [ color="black" label="21, 23, 25, 27, 29, 31, 33, 35, 37, 39, 41, 43, 45, 47, 49" ];
8->5 [ color="black" label="22, 24, 26, 28, 30, 32, 34, 36, 38, 40, 42, 44, 46, 48" ];
8->9 [ color="black" label="50" ];
}
