digraph G {
graph [ ]
node [ ]
edge [ ]
0[ color="black" label="idle" ];
1[ color="black" label="empty hand motion" ];
2[ color="black" label="preshaping" ];
3[ color="black" label="reaching" ];
4[ color="black" label="grasping" ];
5[ color="black" label="holding" ];
6[ color="black" label="lifting" ];
7[ color="black" label="carrying" ];
8[ color="black" label="placing" ];
9[ color="black" label="placing successful" ];
0->1 [ color="black" label="1, 3, 7, 19" ];
1->0 [ color="black" label="2, 4, 18, 20" ];
0->2 [ color="black" label="5" ];
2->0 [ color="black" label="6" ];
1->3 [ color="black" label="8" ];
3->0 [ color="black" label="9, 11, 15" ];
0->3 [ color="black" label="10, 14, 16" ];
0->4 [ color="black" label="12" ];
4->0 [ color="black" label="13" ];
3->1 [ color="black" label="17" ];
0->5 [ color="black" label="21" ];
5->6 [ color="black" label="22" ];
6->7 [ color="black" label="23" ];
7->5 [ color="black" label="24, 26" ];
5->7 [ color="black" label="25" ];
5->8 [ color="black" label="27, 29, 31" ];
8->5 [ color="black" label="28, 30" ];
8->9 [ color="black" label="32" ];
}
