digraph G {
graph [ ]
node [ ]
edge [ ]
0[ color="black" label="idle" ];
1[ color="black" label="empty hand motion" ];
2[ color="black" label="preshaping" ];
3[ color="black" label="reaching" ];
4[ color="black" label="grasping" ];
5[ color="black" label="holding" ];
6[ color="black" label="carrying" ];
7[ color="black" label="lifting" ];
8[ color="black" label="placing" ];
9[ color="black" label="placing successful" ];
0->1 [ color="black" label="1, 3, 7" ];
1->0 [ color="black" label="2, 4" ];
0->2 [ color="black" label="5" ];
2->0 [ color="black" label="6" ];
1->3 [ color="black" label="8" ];
3->4 [ color="black" label="9" ];
4->5 [ color="black" label="10, 12" ];
5->4 [ color="black" label="11" ];
5->6 [ color="black" label="13, 17" ];
6->7 [ color="black" label="14" ];
7->6 [ color="black" label="15" ];
6->5 [ color="black" label="16, 18" ];
5->8 [ color="black" label="19, 21, 23" ];
8->5 [ color="black" label="20, 22" ];
8->9 [ color="black" label="24" ];
}
