digraph G {
graph [ ]
node [ ]
edge [ ]
0[ color="black" label="idle" ];
1[ color="black" label="empty hand motion" ];
2[ color="black" label="preshaping" ];
3[ color="black" label="reaching" ];
4[ color="black" label="grasping" ];
5[ color="black" label="retreating" ];
0->1 [ color="black" label="1" ];
1->0 [ color="black" label="2" ];
0->2 [ color="black" label="3" ];
2->1 [ color="black" label="4" ];
1->3 [ color="black" label="5" ];
3->4 [ color="black" label="6, 8, 10, 12" ];
4->3 [ color="black" label="7, 9, 11, 13" ];
3->5 [ color="black" label="14" ];
}
