digraph G {
graph [ ]
node [ ]
edge [ ]
0[ color="black" label="idle" ];
1[ color="black" label="empty hand motion" ];
2[ color="black" label="preshaping" ];
3[ color="black" label="reaching" ];
4[ color="black" label="grasping" ];
5[ color="black" label="holding" ];
6[ color="black" label="lifting" ];
7[ color="black" label="carrying" ];
8[ color="black" label="placing" ];
9[ color="black" label="placing successful" ];
0->1 [ color="black" label="1, 5" ];
1->0 [ color="black" label="2, 12" ];
0->2 [ color="black" label="3" ];
2->0 [ color="black" label="4" ];
1->3 [ color="black" label="6" ];
3->0 [ color="black" label="7" ];
0->4 [ color="black" label="8" ];
4->0 [ color="black" label="9" ];
0->3 [ color="black" label="10" ];
3->1 [ color="black" label="11" ];
0->5 [ color="black" label="13" ];
5->6 [ color="black" label="14" ];
6->7 [ color="black" label="15" ];
7->5 [ color="black" label="16, 18" ];
5->7 [ color="black" label="17" ];
5->8 [ color="black" label="19, 21, 23, 25, 27" ];
8->5 [ color="black" label="20, 22, 24, 26" ];
8->9 [ color="black" label="28" ];
}
