digraph G {
graph [ ]
node [ ]
edge [ ]
0[ color="black" label="idle" ];
1[ color="black" label="empty hand motion" ];
2[ color="black" label="preshaping" ];
3[ color="black" label="grasping" ];
4[ color="black" label="reaching" ];
5[ color="black" label="retreating" ];
0->1 [ color="black" label="1, 3" ];
1->0 [ color="black" label="2, 4" ];
0->2 [ color="black" label="5" ];
2->0 [ color="black" label="6" ];
0->3 [ color="black" label="7" ];
3->4 [ color="black" label="8, 10, 12, 14" ];
4->3 [ color="black" label="9, 11, 13" ];
4->5 [ color="black" label="15" ];
}
