digraph G {
graph [ ]
node [ ]
edge [ ]
0[ color="black" label="idle" ];
1[ color="black" label="empty hand motion" ];
2[ color="black" label="preshaping" ];
3[ color="black" label="reaching" ];
4[ color="black" label="grasping" ];
5[ color="black" label="retreating" ];
6[ color="black" label="platform moves" ];
7[ color="black" label="carrying" ];
8[ color="black" label="placing" ];
9[ color="black" label="holding" ];
10[ color="black" label="placing failed" ];
0->1 [ color="black" label="1, 5" ];
1->0 [ color="black" label="2, 14" ];
0->2 [ color="black" label="3" ];
2->0 [ color="black" label="4" ];
1->3 [ color="black" label="6" ];
3->4 [ color="black" label="7, 9" ];
4->3 [ color="black" label="8, 10" ];
3->5 [ color="black" label="11" ];
5->2 [ color="black" label="12" ];
2->1 [ color="black" label="13" ];
0->6 [ color="black" label="15" ];
6->7 [ color="black" label="16, 18, 20, 22, 24, 26, 28, 30, 32, 34" ];
7->6 [ color="black" label="17, 19, 21, 23, 25, 27, 29, 31, 33, 35" ];
6->0 [ color="black" label="36" ];
0->8 [ color="black" label="37" ];
8->9 [ color="black" label="38, 40, 42, 44, 46, 48, 50, 52, 54, 56, 58" ];
9->8 [ color="black" label="39, 41, 43, 45, 47, 49, 51, 53, 55, 57, 59" ];
8->10 [ color="black" label="60" ];
}
