digraph G {
graph [ ]
node [ ]
edge [ ]
0[ color="black" label="idle" ];
1[ color="black" label="empty hand motion" ];
2[ color="black" label="preshaping" ];
3[ color="black" label="reaching" ];
4[ color="black" label="grasping" ];
5[ color="black" label="retreating" ];
0->1 [ color="black" label="1, 3, 5, 9" ];
1->0 [ color="black" label="2, 4, 6" ];
0->2 [ color="black" label="7" ];
2->0 [ color="black" label="8" ];
1->3 [ color="black" label="10" ];
3->4 [ color="black" label="11, 13" ];
4->3 [ color="black" label="12, 14" ];
3->5 [ color="black" label="15" ];
}
